CUNY Data 607 - Project 2: Marriage Rates
…
7. Round Single_Rate" and Marriage_Rate" to the hundredth decimal place:

marriage_tidy[, "Marriage_Rate" ] = format(round(marriage_tidy[, "Marriage_Rate" ], 2), nsmall = 2)
marriage_tidy[, "Single_Rate" ] = format(round(marriage_tidy[, "Single_Rate" ], 2), nsmall = 2)

8. Convert to a local data frame:

marriage_tidy <- tbl_df(marriage_tidy)
marriage_tidy

## # A tibble: 306 x 4
##     Year Demographics Single_Rate Marriage_Rate
##    <int>        <chr>       <chr>         <chr>
##  1  1960          All        0.12          0.88
##  2  1970          All        0.13          0.87
##  3  1980          All        0.20          0.80
##  4  1990          All        0.30          0.70
##  5  2000          All        0.35          0.65
##  6  2001          All        0.35          0.65
##  7  2002          All        0.35          0.65
##  8  2003          All        0.36          0.64
##  9  2004          All        0.37          0.63
## 10  2005          All        0.38          0.62
## # ... with 296 more rows
…
People Ages 25-34 by Race from 2000 - 2012

Race <- filter(marriage_tidy, Demographics == "White" | Demographics == "Black" | Demographics == "Hispanic", Year >= 2000)
Race

## # A tibble: 39 x 4
##     Year Demographics Single_Rate Marriage_Rate
##    <int>        <chr>       <chr>         <chr>
##  1  2000        White        0.31          0.69
##  2  2001        White        0.32          0.68
##  3  2002        White        0.32          0.68
##  4  2003        White        0.33          0.67
##  5  2004        White        0.33          0.67
##  6  2005        White        0.34          0.66
##  7  2006        White        0.38          0.62
##  8  2007        White        0.39          0.61
##  9  2008        White        0.40          0.60
## 10  2009        White        0.42          0.58
## # ... with 29 more rows
…
People Ages 25-34 by Education Level from 2000 - 2012

Education <- filter(marriage_tidy, Demographics == "Graduate Degree" | Demographics == "Bachelor's and Some Graduate" | Demographics == "Bachelor's Degree" | Demographics == "Some College" | Demographics == "High School Graduate", Year >= 2000)
Education

## # A tibble: 65 x 4
##     Year         Demographics Single_Rate Marriage_Rate
##    <int>                <chr>       <chr>         <chr>
##  1  2000 High School Graduate        0.33          0.67
##  2  2001 High School Graduate        0.34          0.66
##  3  2002 High School Graduate        0.35          0.65
##  4  2003 High School Graduate        0.36          0.64
##  5  2004 High School Graduate        0.37          0.63
##  6  2005 High School Graduate        0.39          0.61
##  7  2006 High School Graduate        0.43          0.57
##  8  2007 High School Graduate        0.44          0.56
##  9  2008 High School Graduate        0.46          0.54
## 10  2009 High School Graduate        0.48          0.52
## # ... with 55 more rows
…
People Ages 25-34 by Income Level from 2000 - 2012

Income <- filter(marriage_tidy, Demographics == "Low-Income" | Demographics == "Middle-Income" | Demographics == "Upper-Income", Year >= 2000)
Income

## # A tibble: 39 x 4
##     Year Demographics Single_Rate Marriage_Rate
##    <int>        <chr>       <chr>         <chr>
##  1  2000   Low-Income        0.50          0.50
##  2  2001   Low-Income        0.52          0.48
##  3  2002   Low-Income        0.52          0.48
##  4  2003   Low-Income        0.53          0.47
##  5  2004   Low-Income        0.54          0.46
##  6  2005   Low-Income        0.55          0.45
##  7  2006   Low-Income        0.57          0.43
##  8  2007   Low-Income        0.59          0.41
##  9  2008   Low-Income        0.61          0.39
## 10  2009   Low-Income        0.62          0.38
## # ... with 29 more rows
…
People Ages 25-34 by Region from 2000 - 2012

Region <- filter(marriage_tidy, Demographics == "New England" | Demographics == "Mid-Atlantic" | Demographics == "Midwest" | Demographics == "South" | Demographics == "Mountain West" | Demographics == "Pacific", Year >= 2000)
Region

## # A tibble: 78 x 4
##     Year Demographics Single_Rate Marriage_Rate
##    <int>        <chr>       <chr>         <chr>
##  1  2000  New England        0.41          0.59
##  2  2001  New England        0.42          0.58
##  3  2002  New England        0.41          0.59
##  4  2003  New England        0.43          0.57
##  5  2004  New England        0.45          0.55
##  6  2005  New England        0.45          0.55
##  7  2006  New England        0.48          0.52
##  8  2007  New England        0.49          0.51
##  9  2008  New England        0.51          0.49
## 10  2009  New England        0.53          0.47
## # ... with 68 more rows
…
