CUNY Data 607 - Project 2: Yoga
…
## 
## Attaching package: 'dplyr'

## The following objects are masked from 'package:stats':
## 
##     filter, lag

## The following objects are masked from 'package:base':
## 
##     intersect, setdiff, setequal, union

yoga <- dplyr::tbl_df(yoga)
yoga

## # A tibble: 148 x 52
##          X Alabama..us.al. Alaska..us.ak. Arizona..us.az. Arkansas..us.ar.
##  *   <chr>           <int>          <int>           <int>            <int>
##  1 2004-01              20             23              21               24
##  2 2004-02               8             26              25               16
##  3 2004-03              10             26              22               26
##  4 2004-04              15             34              24               18
##  5 2004-05              15             14              24               11
##  6 2004-06              12             21              23               14
##  7 2004-07              13             17              25               15
##  8 2004-08              11             17              20               15
##  9 2004-09              10             23              20               10
## 10 2004-10              13             23              22               18
## # ... with 138 more rows, and 47 more variables: California..us.ca. <int>,
## #   Colorado..us.co. <int>, Connecticut..us.ct. <int>,
## #   Delaware..us.de. <int>, District.of.Columbia..us.dc. <int>,
## #   Florida..us.fl. <int>, Georgia..us.ga. <int>, Hawaii..us.hi. <int>,
## #   Idaho..us.id. <int>, Illinois..us.il. <int>, Indiana..us.in. <int>,
## #   Iowa..us.ia. <int>, Kansas..us.ks. <int>, Kentucky..us.ky. <int>,
## #   Louisiana..us.la. <int>, Maine..us.me. <int>, Maryland..us.md. <int>,
## #   Massachusetts..us.ma. <int>, Michigan..us.mi. <int>,
## #   Minnesota..us.mn. <int>, Mississippi..us.ms. <int>,
…
yoga 

## # A tibble: 148 x 52
##          X Alabama Alaska Arizona Arkansas California Colorado Connecticut
##  *   <chr>   <int>  <int>   <int>    <int>      <int>    <int>       <int>
##  1 2004-01      20     23      21       24         32       33          27
##  2 2004-02       8     26      25       16         27       30          26
##  3 2004-03      10     26      22       26         28       29          30
##  4 2004-04      15     34      24       18         25       27          22
##  5 2004-05      15     14      24       11         25       24          25
##  6 2004-06      12     21      23       14         27       27          26
##  7 2004-07      13     17      25       15         28       30          22
##  8 2004-08      11     17      20       15         28       27          27
##  9 2004-09      10     23      20       10         26       25          24
## 10 2004-10      13     23      22       18         25       30          19
## # ... with 138 more rows, and 44 more variables: Delaware <int>, DC <int>,
## #   Florida <int>, Georgia <int>, Hawaii <int>, Idaho <int>,
## #   Illinois <int>, Indiana <int>, Iowa <int>, Kansas <int>,
## #   Kentucky <int>, Louisiana <int>, Maine <int>, Maryland <int>,
## #   Massachusetts <int>, Michigan <int>, Minnesota <int>,
## #   Mississippi <int>, Missouri <int>, Montana <int>, Nebraska <int>,
## #   Nevada <int>, New_Hampshire <int>, New_Jersey <int>, New_Mexico <int>,
## #   New_York <int>, North_Carolina <int>, North_Dakota <int>, Ohio <int>,
## #   Oklahoma <int>, Oregon <int>, Pennsylvania <int>, Rhode_Island <int>,
## #   South_Carolina <int>, South_Dakota <int>, Tennessee <int>,
## #   Texas <int>, Utah <int>, Vermont <int>, Virginia <int>,
## #   Washington <int>, West_Virginia <int>, Wisconsin <int>, Wyoming <int>

2. Separate Year-Month into two columns

yoga <- tidyr::separate(yoga, X, c("Year", "Month"))
yoga

## # A tibble: 148 x 53
##     Year Month Alabama Alaska Arizona Arkansas California Colorado
##  * <chr> <chr>   <int>  <int>   <int>    <int>      <int>    <int>
##  1  2004    01      20     23      21       24         32       33
##  2  2004    02       8     26      25       16         27       30
##  3  2004    03      10     26      22       26         28       29
##  4  2004    04      15     34      24       18         25       27
##  5  2004    05      15     14      24       11         25       24
##  6  2004    06      12     21      23       14         27       27
##  7  2004    07      13     17      25       15         28       30
##  8  2004    08      11     17      20       15         28       27
##  9  2004    09      10     23      20       10         26       25
## 10  2004    10      13     23      22       18         25       30
## # ... with 138 more rows, and 45 more variables: Connecticut <int>,
## #   Delaware <int>, DC <int>, Florida <int>, Georgia <int>, Hawaii <int>,
## #   Idaho <int>, Illinois <int>, Indiana <int>, Iowa <int>, Kansas <int>,
## #   Kentucky <int>, Louisiana <int>, Maine <int>, Maryland <int>,
## #   Massachusetts <int>, Michigan <int>, Minnesota <int>,
## #   Mississippi <int>, Missouri <int>, Montana <int>, Nebraska <int>,
## #   Nevada <int>, New_Hampshire <int>, New_Jersey <int>, New_Mexico <int>,
## #   New_York <int>, North_Carolina <int>, North_Dakota <int>, Ohio <int>,
## #   Oklahoma <int>, Oregon <int>, Pennsylvania <int>, Rhode_Island <int>,
## #   South_Carolina <int>, South_Dakota <int>, Tennessee <int>,
## #   Texas <int>, Utah <int>, Vermont <int>, Virginia <int>,
## #   Washington <int>, West_Virginia <int>, Wisconsin <int>, Wyoming <int>

ncol(yoga)

## [1] 53

3. Make the states into observations from variables with tidyr gather function

library(tidyr)
YogaLong <- gather(yoga, "State", "n", 3:53)
YogaLong

## # A tibble: 7,548 x 4
##     Year Month   State     n
##    <chr> <chr>   <chr> <int>
##  1  2004    01 Alabama    20
##  2  2004    02 Alabama     8
##  3  2004    03 Alabama    10
##  4  2004    04 Alabama    15
##  5  2004    05 Alabama    15
##  6  2004    06 Alabama    12
##  7  2004    07 Alabama    13
##  8  2004    08 Alabama    11
##  9  2004    09 Alabama    10
## 10  2004    10 Alabama    13
## # ... with 7,538 more rows

4. Rename n to Searches

YogaLong <- dplyr::rename(YogaLong, Searches = 'n')
YogaLong

## # A tibble: 7,548 x 4
##     Year Month   State Searches
##    <chr> <chr>   <chr>    <int>
##  1  2004    01 Alabama       20
##  2  2004    02 Alabama        8
##  3  2004    03 Alabama       10
##  4  2004    04 Alabama       15
##  5  2004    05 Alabama       15
##  6  2004    06 Alabama       12
##  7  2004    07 Alabama       13
##  8  2004    08 Alabama       11
##  9  2004    09 Alabama       10
## 10  2004    10 Alabama       13
## # ... with 7,538 more rows

5. Change Year and Month columns from characters to numeric?

YogaLong$Year <- as.numeric(as.character(YogaLong$Year))
YogaLong$Month <- as.numeric(as.character(YogaLong$Month))
YogaLong

## # A tibble: 7,548 x 4
##     Year Month   State Searches
##    <dbl> <dbl>   <chr>    <int>
##  1  2004     1 Alabama       20
##  2  2004     2 Alabama        8
##  3  2004     3 Alabama       10
##  4  2004     4 Alabama       15
##  5  2004     5 Alabama       15
##  6  2004     6 Alabama       12
##  7  2004     7 Alabama       13
##  8  2004     8 Alabama       11
##  9  2004     9 Alabama       10
## 10  2004    10 Alabama       13
## # ... with 7,538 more rows
…
arrange(YogaLong, Searches)

2. Which state had the highest interest in yoga based on their mean number of google searches from 2004-2016?

First need to group the searches by state and year and calculate the mean, min, and max of searches by each.

State <- YogaLong %>% 
  group_by(State) %>% 
  summarise(Mean = mean(Searches), Min = min(Searches), Max = max(Searches), n = n())
  
State <- arrange(State, desc(Mean))

State

## # A tibble: 51 x 5
##            State     Mean   Min   Max     n
##            <chr>    <dbl> <dbl> <dbl> <int>
##  1       Vermont 50.87162    20   100   148
##  2        Hawaii 38.50676    24    54   148
##  3  Rhode_Island 37.47297    20    55   148
##  4 New_Hampshire 35.75676    20    57   148
##  5         Maine 35.47973    19    57   148
##  6       Montana 33.62162    13    55   148
##  7       Wyoming 32.53378     0    59   148
##  8 Massachusetts 32.18243    25    43   148
##  9        Alaska 31.93243    12    61   148
## 10      Colorado 30.93243    23    43   148
## # ... with 41 more rows
…
